<?xml version="1.0" encoding="UTF-8"?>
<svg width="238px" height="64px" viewBox="0 0 238 64" version="1.1" xmlns="http://www.w3.org/2000/svg" xmlns:xlink="http://www.w3.org/1999/xlink">
    <!-- Generator: Sketch 53.2 (72643) - https://sketchapp.com -->
    <title>Group</title>
    <desc>Created with Sketch.</desc>
    <g id="Page-1" stroke="none" stroke-width="1" fill="none" fill-rule="evenodd">
        <g id="logo" transform="translate(-10.000000, -9.000000)" fill="#DB202C">
            <g id="Group" transform="translate(10.200000, 9.990000)">
                <path d="M0,0.02 C9.95,0 19.9,0.01 29.84,0.01 C29.82,2.85 29.83,5.68 29.85,8.51 C26.52,8.59 23.2,8.66 19.87,8.75 C20.05,25.61 19.85,42.47 20,59.33 C16.64,59.79 13.27,60.21 9.91,60.67 C9.93,43.41 9.89,26.16 9.92,8.9 C6.65,8.93 3.37,8.96 0.1,8.93 C0.04,5.96 0.02,2.99 0,0.02" id="Fill-2"></path>
                <path d="M33.84,0.02 C37.18,0.01 40.52,0.01 43.86,0.01 C43.76,18.89 43.84,37.77 43.85,56.65 C40.48,56.91 37.12,57.2 33.76,57.58 C33.94,38.4 33.79,19.21 33.84,0.02" id="Fill-3"></path>
                <path d="M49.75,0.03 C54.37,0 58.98,0.01 63.59,0.01 C65.99,12.14 67.91,24.37 70.4,36.48 C72,24.29 74.55,12.23 76.26,0.06 C80.89,-0.01 85.52,0 90.15,0.01 C90.14,17.79 90.08,35.57 90.19,53.34 C87.04,53.58 83.9,53.76 80.75,53.92 C80.8,47.28 80.78,40.65 80.78,34.01 C80.77,28.52 81.04,23.21 80.36,17.74 C78.67,29.87 76.58,41.96 74.63,54.05 C71.43,54.31 68.22,54.58 65.01,54.76 C63.3,43.33 61.33,31.82 58.98,20.52 C58.55,32.03 58.81,43.63 58.86,55.16 C55.86,55.49 52.86,55.8 49.86,56.06 C49.67,37.39 49.96,18.71 49.75,0.03" id="Fill-4"></path>
                <path d="M96.84,0.02 C105.72,0.01 114.6,0 123.48,0.02 C123.47,2.59 123.45,5.16 123.41,7.73 C117.87,7.88 112.36,7.83 106.81,7.83 C106.81,12.27 106.81,16.72 106.82,21.16 C111.15,21.14 115.49,21.13 119.83,21.14 C119.82,23.86 119.82,26.57 119.84,29.28 C115.5,29.27 111.16,29.29 106.83,29.35 C106.81,34.33 106.81,39.32 106.82,44.31 C112.35,44.25 117.88,44.18 123.41,44.34 C123.45,47.19 123.46,50.05 123.45,52.91 C114.59,52.99 105.71,52.92 96.85,53.07 C96.83,35.38 96.84,17.7 96.84,0.02" id="Fill-5"></path>
                <path d="M128.84,0.02 C137.47,0.01 146.1,0 154.73,0.02 C154.72,2.63 154.7,5.23 154.66,7.84 C149.39,7.93 144.09,7.87 138.81,7.85 C138.81,12.64 138.81,17.43 138.81,22.22 C142.75,22.29 146.75,22.1 150.66,22.51 C151.65,24.72 151.07,28.15 151.27,30.6 C147.12,30.63 142.97,30.54 138.82,30.4 C138.82,37.95 138.77,45.51 138.86,53.07 C135.52,53.01 132.19,52.99 128.85,52.94 C128.83,35.3 128.84,17.66 128.84,0.02" id="Fill-6"></path>
                <path d="M158.84,0.02 C162.18,0.01 165.52,0.01 168.85,0.01 C168.77,15.26 168.82,30.52 168.84,45.77 C174.12,46.05 179.4,46.23 184.66,46.76 C184.71,49.8 184.72,52.83 184.7,55.87 C176.11,54.94 167.46,54.55 158.84,53.88 C158.84,35.92 158.83,17.97 158.84,0.02" id="Fill-7"></path>
                <path d="M187.84,0.02 C191.18,0.01 194.52,0.01 197.85,0.01 C197.78,19.04 197.81,38.08 197.88,57.11 C194.52,56.81 191.18,56.41 187.84,55.97 C187.83,37.32 187.84,18.67 187.84,0.02" id="Fill-8"></path>
                <path d="M202.45,0.04 C205.93,0.01 209.42,0.01 212.9,0 C215.27,6.68 217.3,13.48 219.71,20.14 C222.24,13.5 224.34,6.7 226.71,0 C229.85,0.01 232.99,0.01 236.13,0.04 C233.2,8.81 230.05,17.51 227.07,26.26 C226.12,28.71 227,30.71 227.73,33.05 C231.03,42.7 234.01,52.47 236.91,62.24 C233.34,61.73 229.77,61.15 226.2,60.67 C223.78,52.6 221.8,44.27 218.66,36.45 C216.07,43.79 213.61,51.21 211.31,58.64 C208.07,58.21 204.82,57.87 201.59,57.46 C204.91,48.5 207.99,39.46 211.32,30.51 C212.21,28.26 212.04,26.79 211.26,24.56 C208.39,16.36 205.41,8.2 202.45,0.04" id="Fill-9"></path>
            </g>
        </g>
    </g>
</svg>